<svg width="24" height="24" viewBox="0 0 24 24" fill="none" xmlns="http://www.w3.org/2000/svg">
<path d="M11.993 19.0511C11.4086 18.4611 10.8353 17.8925 10.2637 17.3256L10.2629 17.3247L10.261 17.323C8.48068 15.5752 6.7003 13.8095 4.93791 12.0439L4.93795 12.0438L4.93296 12.039C3.9924 11.1226 3.48429 10.0362 3.50038 8.7447L3.5004 8.74141C3.50586 7.8118 3.81877 6.90918 4.39181 6.17212C4.9649 5.43499 5.76668 4.90405 6.67454 4.66168L6.67454 4.66169L6.67743 4.6609C7.07867 4.55121 7.49333 4.49709 7.90961 4.50012L7.90961 4.50013H7.91325C8.99645 4.50013 9.9897 4.90591 10.8757 5.76833L10.8756 5.76847L10.8858 5.77784C11.0323 5.91277 11.1518 6.04625 11.2938 6.20494C11.3826 6.30419 11.4803 6.41329 11.5989 6.53878L11.9631 6.924L12.3264 6.53797C12.4378 6.41955 12.5314 6.31659 12.6172 6.22219C12.7443 6.08236 12.8543 5.96128 12.9802 5.83645L12.9821 5.83461C13.816 4.99888 14.9512 4.52488 16.1386 4.51798C16.9721 4.51855 17.7876 4.75658 18.4881 5.20334C19.1888 5.65028 19.7447 6.28712 20.0901 7.03757C20.8136 8.61268 20.556 10.1153 19.4972 11.5455C19.3661 11.7208 19.2213 11.8857 19.064 12.0385L19.064 12.0385L19.0604 12.0421L11.993 19.0511ZM19.2683 11.3977L19.271 11.394C19.7778 10.7174 20.0945 10.0194 20.1942 9.29648C20.2943 8.57041 20.171 7.85271 19.8495 7.14804C19.5262 6.43845 19.0039 5.83691 18.3457 5.41493C17.6874 4.99297 16.921 4.76826 16.1379 4.76726L16.1379 4.76718L16.1288 4.76733C15.0218 4.78621 13.9659 5.23665 13.1901 6.02248L13.5459 6.37377L13.1938 6.01875L13.1912 6.02138C13.0673 6.14427 12.9339 6.27655 12.7818 6.44592L12.5359 6.70724L11.9675 7.29805L11.4097 6.70154L11.4033 6.69465L11.3966 6.68801C11.3616 6.65327 11.3247 6.61325 11.2781 6.56239L11.2747 6.55871C11.2369 6.51739 11.1918 6.46824 11.1448 6.42062C11.0079 6.25631 10.862 6.09965 10.7077 5.95135C9.88707 5.15761 8.95615 4.75834 7.91325 4.75833L7.90992 4.75835C7.50892 4.76102 7.1099 4.81467 6.72259 4.91802L6.72211 4.91814C5.8732 5.14556 5.12266 5.64415 4.58697 6.33774C4.05122 7.0314 3.76038 7.88133 3.76011 8.75617V8.75633C3.76011 9.938 4.21896 10.9706 5.10986 11.8737L5.111 11.8749C5.88327 12.6527 6.67322 13.4321 7.45012 14.1986C7.8334 14.5767 8.21351 14.9517 8.58675 15.3219C8.58681 15.3219 8.58686 15.322 8.58692 15.3221L10.4385 17.1601L10.4387 17.1603L11.6264 18.3382L11.9785 18.6873L12.3306 18.3382L12.4205 18.2489L18.8435 11.8791C18.8438 11.8788 18.8441 11.8785 18.8444 11.8783C18.9969 11.7282 19.1386 11.5676 19.2683 11.3977Z" fill="#1D2327" stroke="#1D2327"/>
</svg>
