<svg width="24" height="24" viewBox="0 0 24 24" fill="none" xmlns="http://www.w3.org/2000/svg">
<path d="M11 8H7C4.79086 8 3 9.79086 3 12V12C3 14.2091 4.79086 16 7 16H11" stroke="#1D2327" stroke-width="1.5"/>
<path d="M8 12H16" stroke="#1D2327" stroke-width="1.5"/>
<path d="M13 8H17C19.2091 8 21 9.79086 21 12V12C21 14.2091 19.2091 16 17 16H13" stroke="#1D2327" stroke-width="1.5"/>
<path d="M4.53033 20.5304L3.46967 19.4697L19.4697 3.46973L20.5303 4.53039L4.53033 20.5304Z" fill="#1D2327"/>
</svg>
