<svg width="24" height="24" viewBox="0 0 24 24" fill="none" xmlns="http://www.w3.org/2000/svg">
<path fill-rule="evenodd" clip-rule="evenodd" d="M6.75 7.25H3.75H3V8V20V20.75H3.75H15.75H16.5V20V17H15V19.25H4.5V8.75H6.75V7.25Z" fill="#1D2327"/>
<rect x="8.75" y="3" width="12" height="12" stroke="#1D2327" stroke-width="1.5"/>
</svg>
