<svg width="24" height="24" viewBox="0 0 24 24" fill="none" xmlns="http://www.w3.org/2000/svg">
<path d="M19.4212 13.8785C19.7002 14.0356 19.9968 14.096 20.25 14.1234V18.0667C20.25 18.0691 20.2492 18.0855 20.237 18.1139C20.2248 18.1424 20.2051 18.1734 20.1797 18.201C20.1555 18.2274 20.1334 18.2428 20.1201 18.25H3.88133C3.8689 18.2429 3.84828 18.2282 3.82516 18.2029C3.79975 18.175 3.77912 18.1428 3.76572 18.1118C3.75372 18.084 3.75062 18.0647 3.75 18.0557V14.1238C4.00426 14.0966 4.30269 14.0363 4.58295 13.8779C5.23202 13.5111 5.46429 12.8249 5.46429 12C5.46429 11.1753 5.23216 10.4896 4.58499 10.1226C4.30689 9.9649 4.011 9.90426 3.75857 9.87677V6.0042C3.75857 5.92845 3.79005 5.84838 3.84009 5.79036C3.85845 5.76907 3.87448 5.75651 3.88447 5.75H20.0967C20.1111 5.76051 20.1323 5.77888 20.1561 5.80744C20.1878 5.84544 20.214 5.8894 20.231 5.93138C20.2483 5.97432 20.25 5.99988 20.25 6.0042V9.87662C19.9968 9.904 19.7002 9.96441 19.4212 10.1215C18.7721 10.4871 18.5357 11.1719 18.5357 12C18.5357 12.8281 18.7721 13.5129 19.4212 13.8785Z" stroke="#1D2327" stroke-width="1.5"/>
</svg>
